Benjamin RECHOU 2301956752

1) c) new
2) c) need to import java.util.Scanner
3) a) radius
4) c) & b) has getter and setter
5) a)
6) a)
7) f) an error since "int arr" insn't an array type
8) a) overloading
9) b)
10) a)
11) c)
12) b) 
13) c)
14) d)
15) b) 
16) a)
17) d)
18) d)
19) d) ( e) also, of course )
20) c)
21) f) 20
22) a)
23) d)
24) b)
25) c)

